use_BPpack.knit
…
For the purpose of illustration, we restricted the NHANESIII data to
patients having at least two visits and two measures of BP per
visit. We further selected, for each patients, the first two visits
and the last two BP measures per visit, so that the resulting data in
dt_nhanes corresponds to an equilibrated design.

The resulting data is stored in a long format, with one line per
patient/visit/measure.

dt_nhanes

## # A tibble: 121,280 x 12
## # Groups:   id, BP_typ, visit [60,640]
##      id   age sex   BP_typ visit  meas    bp tt_htn   bmi diab  samp_weight htn  
##   <dbl> <dbl> <fct> <chr>  <dbl> <int> <dbl> <lgl>  <dbl> <lgl>       <dbl> <lgl>
## 1     3    21 1     dia        1     1    60 FALSE   24.4 FALSE        1523 FALSE
## 2     3    21 1     dia        1     2    58 FALSE   24.4 FALSE        1523 FALSE
## 3     3    21 1     dia        2     1    78 FALSE   24.4 FALSE        1523 FALSE
## 4     3    21 1     dia        2     2    76 FALSE   24.4 FALSE        1523 FALSE
## 5     3    21 1     sys        1     1   116 FALSE   24.4 FALSE        1523 FALSE
## # ... with 121,275 more rows
…
